WORD_ID,VOCAB_WORD
0,http
1,use
2,list
3,email
4,get
5,mail
6,one
7,free
8,time
9,work
10,messag
11,make
12,like
13,would
14,peopl
15,inform
16,new
17,receiv
18,pleas
19,address
20,busi
21,click
22,want
23,us
24,need
25,order
26,remov
27,also
28,go
29,year
30,send
31,money
32,file
33,compani
34,system
35,name
36,wrote
37,report
38,way
39,user
40,look
41,chang
42,site
43,day
44,know
45,state
46,program
47,may
48,see
49,call
50,could
51,group
52,even
53,think
54,includ
55,linux
56,first
57,offer
58,take
59,say
60,servic
61,right
62,world
63,tri
64,help
65,find
66,internet
67,market
68,product
69,mani
70,much
71,home
72,said
73,web
74,softwar
75,problem
76,date
77,line
78,spam
79,check
80,start
81,number
82,run
83,good
84,thing
85,link
86,well
87,subject
88,phone
89,interest
90,govern
91,person
92,provid
93,set
94,today
95,come
96,best
97,million
98,give
99,server
100,follow
101,back
102,form
103,rate
104,month
105,everi
106,secur
107,gener
108,price
109,url
110,still
111,comput
112,packag
113,instal
114,avail
115,sent
116,code
117,commun
118,life
119,version
120,read
121,sinc
122,ad
123,grant
124,maintain
125,sponsor
126,thank
127,network
128,credit
129,two
130,differ
131,without
132,made
133,develop
134,support
135,within
136,week
137,write
138,save
139,realli
140,case
141,page
142,subscript
143,someth
144,irish
145,current
146,un
147,last
148,anyon
149,onlin
150,complet
151,sure
152,card
153,seem
154,requir
155,build
156,custom
157,manag
158,never
159,de
160,ilug
161,better
162,window
163,special
164,keep
165,point
166,ca
167,place
168,search
169,anoth
170,per
171,found
172,access
173,actual
174,repli
175,result
176,contact
177,question
178,part
179,base
180,listmast
181,futur
182,issu
183,old
184,put
185,wish
186,next
187,long
188,let
189,countri
190,live
191,hour
192,must
193,end
194,invest
195,mean
196,process
197,easi
198,unsubscrib
199,lot
200,unit
201,great
202,got
203,guarante
204,technolog
205,show
206,account
207,nation
208,might
209,power
210,releas
211,legal
212,cost
213,data
214,allow
215,sourc
216,success
217,news
218,engin
219,possibl
220,trade
221,profession
222,idea
223,post
224,increas
225,advertis
226,ask
227,pay
228,public
229,error
230,open
231,websit
232,test
233,opportun
234,real
235,sell
236,ever
237,less
238,insur
239,respons
240,plan
241,design
242,tell
243,visit
244,creat
245,word
246,buy
247,howev
248,prefer
249,reason
250,heaven
251,effect
252,someon
253,aug
254,cd
255,sale
256,law
257,applic
258,improv
259,instead
260,around
261,fact
262,least
263,box
264,dollar
265,ye
266,rpm
267,american
268,fix
269,job
270,copi
271,probabl
272,simpl
273,origin
274,cours
275,believ
276,contain
277,fax
278,move
279,type
280,happen
281,friend
282,though
283,littl
284,total
285,financi
286,welcom
287,share
288,request
289,add
290,exampl
291,client
292,els
293,abl
294,format
295,perl
296,valu
297,anyth
298,simpli
299,alway
300,high
301,alreadi
302,protect
303,fill
304,full
305,cash
306,feel
307,mailto
308,directori
309,import
310,regard
311,purchas
312,stop
313,bit
314,licens
315,signatur
316,note
317,polici
318,intern
319,experi
320,answer
321,exist
322,updat
323,return
324,past
325,learn
326,famili
327,info
328,sep
329,top
330,geek
331,becom
332,ship
333,act
334,age
335,instruct
336,lead
337,small
338,drive
339,suppli
340,second
341,control
342,databas
343,member
344,low
345,thousand
346,select
347,recent
348,incom
349,citi
350,featur
351,etc
352,stuff
353,minut
354,limit
355,turn
356,sever
357,industri
358,yet
359,done
360,appli
361,folder
362,tool
363,continu
364,understand
365,c
366,detail
367,guid
368,noth
369,everyth
370,step
371,exmh
372,notic
373,oper
374,enough
375,claim
376,big
377,care
378,e
379,sign
380,univers
381,letter
382,caus
383,larg
384,key
385,three
386,hard
387,thinkgeek
388,other
389,connect
390,bill
391,record
392,discuss
393,thu
394,accept
395,term
396,play
397,pgp
398,offic
399,via
400,specif
401,text
402,option
403,talk
404,america
405,mayb
406,direct
407,deal
408,immedi
409,download
410,major
411,seen
412,forc
413,hope
414,subscrib
415,comment
416,kind
417,thought
418,individu
419,decid
420,rule
421,lose
422,log
423,plu
424,method
425,natur
426,matter
427,risk
428,either
429,true
430,yahoo
431,rememb
432,assist
433,content
434,quot
435,present
436,rather
437,away
438,mime
439,wait
440,r
441,bank
442,fund
443,kernel
444,local
445,hand
446,project
447,secret
448,hundr
449,loan
450,train
451,matthia
452,level
453,corpor
454,research
455,consid
456,razor
457,area
458,book
459,august
460,forward
461,addit
462,root
463,stori
464,machin
465,polit
466,standard
467,bad
468,benefit
469,target
470,war
471,entir
472,quit
473,suggest
474,document
475,appear
476,copyright
477,presid
478,bodi
479,global
480,author
481,bug
482,often
483,posit
484,expect
485,center
486,human
487,mind
488,distribut
489,juli
490,septemb
491,grow
492,jul
493,ago
494,qualiti
495,hit
496,trust
497,size
498,partner
499,easili
500,island
501,absolut
502,pm
503,whether
504,love
505,agent
506,activ
507,join
508,b
509,given
510,involv
511,collect
512,solut
513,happi
514,amount
515,fast
516,associ
517,charg
518,domain
519,man
520,promot
521,whole
522,dvd
523,sort
524,far
525,earn
526,fork
527,parti
528,later
529,hi
530,feder
531,submit
532,upon
533,mortgag
534,wed
535,potenti
536,meet
537,wrong
538,refer
539,nice
540,enter
541,load
542,tm
543,econom
544,wonder
545,social
546,transact
547,john
548,publish
549,singl
550,almost
551,red
552,discov
553,reach
554,everyon
555,close
556,view
557,fail
558,execut
559,pass
560,sound
561,depend
562,privat
563,perform
564,women
565,profit
566,broadcast
567,attack
568,newslett
569,automat
570,paid
571,relat
572,statement
573,effort
574,contract
575,delet
576,mark
577,media
578,foreign
579,begin
580,compil
581,final
582,sequenc
583,regist
584,miss
585,bush
586,spamassassin
587,cell
588,figur
589,x
590,handl
591,command
592,stock
593,header
594,similar
595,action
596,locat
597,tuesday
598,pick
599,display
600,game
601,transfer
602,templ
603,hat
604,disk
605,wo
606,chri
607,produc
608,digit
609,soon
610,event
611,known
612,track
613,articl
614,print
615,longer
616,tax
617,properti
618,function
619,mention
620,pretti
621,toner
622,dear
623,men
624,default
625,commiss
626,store
627,pc
628,debt
629,oblig
630,hous
631,respect
632,sun
633,upgrad
634,microsoft
635,organ
636,script
637,due
638,imag
639,enenkio
640,bulk
641,payment
642,administr
643,weight
644,along
645,daili
646,health
647,freedom
648,bonu
649,practic
650,net
651,half
652,propos
653,worth
654,offici
655,capit
656,usa
657,billion
658,cartridg
659,came
660,resourc
661,languag
662,strategi
663,anyway
664,late
665,leav
666,platform
667,exactli
668,concern
669,clear
670,street
671,remain
672,devic
673,assum
674,html
675,car
676,lost
677,review
678,la
679,ok
680,tire
681,ignor
682,head
683,tue
684,n
685,interact
686,hear
687,respond
688,went
689,taken
690,deliv
691,tablet
692,independ
693,bring
694,configur
695,perhap
696,clean
697,compar
698,averag
699,qualifi
700,space
701,watch
702,press
703,fine
704,invok
705,school
706,short
707,retail
708,expens
709,recommend
710,fee
711,enabl
712,host
713,memori
714,field
715,fall
716,membership
717,consult
718,huge
719,guess
720,usual
721,edit
722,xml
723,suit
724,extrem
725,choos
726,advantag
727,except
728,warn
729,agre
730,common
731,en
732,port
733,normal
734,materi
735,region
736,educ
737,abil
738,side
739,fri
740,basic
741,announc
742,drop
743,item
744,paper
745,cheer
746,le
747,dream
748,although
749,told
750,five
751,guy
752,growth
753,vulner
754,spend
755,readi
756,hold
757,main
758,confidenti
759,electron
760,win
761,model
762,replac
763,left
764,face
765,unseen
766,interfac
767,studi
768,reserv
769,altern
770,mon
771,loss
772,kingdom
773,safe
774,intend
775,accord
776,choic
777,approv
778,implement
779,rest
780,id
781,oz
782,histori
783,multipl
784,commerci
785,situat
786,extra
787,moment
788,togeth
789,investig
790,quick
791,insid
792,employ
793,combin
794,chanc
795,section
796,pictur
797,coupl
798,initi
799,purpos
800,advanc
801,msg
802,confirm
803,goe
804,break
805,avoid
806,monday
807,unless
808,j
809,util
810,across
811,court
812,particular
813,burn
814,fals
815,object
816,energi
817,express
818,score
819,et
820,male
821,india
822,video
823,societi
824,indic
825,owner
826,took
827,count
828,sens
829,p
830,speed
831,filter
832,directli
833,correct
834,agenc
835,anywher
836,procedur
837,die
838,variou
839,four
840,profil
841,black
842,period
843,uniqu
844,match
845,seek
846,especi
847,ventur
848,gpl
849,cut
850,kevin
851,sex
852,consum
853,piec
854,spammer
855,whatev
856,investor
857,certain
858,behalf
859,setup
860,knowledg
861,explain
862,popul
863,color
864,class
865,adam
866,latest
867,remot
868,oh
869,gain
870,tip
871,militari
872,unison
873,atol
874,dagga
875,ftp
876,block
877,lawrenc
878,south
879,marshal
880,googl
881,unix
882,gari
883,tv
884,patch
885,team
886,smoke
887,switch
888,shop
889,establish
890,valuabl
891,aaaaaaaaaaaaaaaaaaaaaaaaaaaaaaaaaaaaaaaaaaaaaaaaaaaaaaaaaaaaaaaaaaaaaaaaaaaa
892,ragga
893,java
894,imagin
895,prevent
896,integr
897,robert
898,attempt
899,prepar
900,third
901,boot
902,privaci
903,folk
904,will
905,particip
906,hardwar
907,necessari
908,manual
909,sometim
910,heard
911,sorri
912,reduc
913,saou
914,tag
915,bottl
916,york
917,screen
918,congress
919,night
920,sa
921,china
922,fastest
923,certainli
924,backup
925,enjoy
926,cover
927,valid
928,stand
929,suppos
930,depart
931,goal
932,driver
933,obtain
934,alb
935,path
936,seriou
937,mass
938,regul
939,amaz
940,lower
941,botan
942,competit
943,capabl
944,fulli
945,h
946,land
947,promis
948,speak
949,poor
950,medic
951,apolog
952,introduc
953,extend
954,scienc
955,deathtospamdeathtospamdeathtospam
956,lowest
957,traffic
958,movi
959,describ
960,defin
961,titl
962,paul
963,troubl
964,cv
965,film
966,exchang
967,neg
968,easier
969,wireless
970,f
971,osdn
972,rang
973,decis
974,sender
975,os
976,death
977,approach
978,technic
979,six
980,murphi
981,predict
982,earli
983,fat
984,beberg
985,white
986,commit
987,written
988,redhat
989,fortun
990,quickli
991,sold
992,telephon
993,im
994,king
995,kill
996,worri
997,uk
998,michael
999,ham
1000,mobil
1001,seventh
1002,firm
1003,music
1004,apt
1005,judgment
1006,desir
1007,attach
1008,north
1009,premium
1010,economi
1011,father
1012,ensur
1013,opinion
1014,librari
1015,definit
1016,player
1017,faster
1018,adult
1019,appar
1020,achiev
1021,archiv
1022,argument
1023,button
1024,techniqu
1025,separ
1026,travel
1027,enterpris
1028,bar
1029,demand
1030,threat
1031,cooper
1032,deserv
1033,board
1034,browser
1035,hello
1036,condit
1037,anim
1038,outsid
1039,modul
1040,elimin
1041,dave
1042,wide
1043,terrorist
1044,estat
1045,david
1046,attent
1047,enhanc
1048,stay
1049,repres
1050,children
1051,drug
1052,virtual
1053,cabl
1054,determin
1055,expert
1056,pain
1057,wall
1058,gnupg
1059,kid
1060,modifi
1061,held
1062,environ
1063,sincer
1064,declar
1065,washington
1066,monthli
1067,signific
1068,danger
1069,permiss
1070,fun
1071,confid
1072,g
1073,w
1074,relev
1075,l
1076,iii
1077,canada
1078,rich
1079,programm
1080,diet
1081,cat
1082,sum
1083,air
1084,none
1085,cc
1086,equip
1087,exclus
1088,popular
1089,proven
1090,forev
1091,excel
1092,bottom
1093,bitbitch
1094,justin
1095,usd
1096,expand
1097,paragraph
1098,central
1099,factor
1100,skip
1101,friday
1102,string
1103,sexual
1104,centuri
1105,relationship
1106,anybodi
1107,identifi
1108,near
1109,monitor
1110,challeng
1111,appreci
1112,terror
1113,behind
1114,director
1115,asset
1116,excit
1117,toward
1118,exercis
1119,girl
1120,confer
1121,perfect
1122,citizen
1123,whose
1124,unsolicit
1125,defens
1126,among
1127,rais
1128,progress
1129,discoveri
1130,rh
1131,hettinga
1132,sampl
1133,west
1134,road
1135,thread
1136,difficult
1137,fit
1138,rel
1139,illeg
1140,photo
1141,colleg
1142,intellig
1143,entri
1144,spain
1145,partit
1146,lender
1147,strong
1148,solv
1149,seri
1150,reader
1151,earth
1152,confus
1153,serv
1154,octob
1155,chief
1156,tie
1157,william
1158,acquir
1159,measur
1160,fair
1161,european
1162,smart
1163,stupid
1164,refin
1165,largest
1166,instant
1167,verifi
1168,tree
1169,san
1170,mode
1171,extract
1172,french
1173,sweet
1174,equival
1175,built
1176,peac
1177,regular
1178,conveni
1179,procmail
1180,laptop
1181,slow
1182,mac
1183,resid
1184,oct
1185,lock
1186,reliabl
1187,datapow
1188,suse
1189,dead
1190,categori
1191,tradit
1192,inlin
1193,brian
1194,front
1195,africa
1196,warranti
1197,tim
1198,graphic
1199,ident
1200,cach
1201,leader
1202,deliveri
1203,voic
1204,europ
1205,useless
1206,ten
1207,emerg
1208,capillari
1209,evid
1210,pattern
1211,annuiti
1212,realiz
1213,femal
1214,fire
1215,art
1216,gnu
1217,statu
1218,compat
1219,campaign
1220,desktop
1221,occur
1222,young
1223,therefor
1224,abus
1225,cultur
1226,gift
1227,higher
1228,revenu
1229,physic
1230,previous
1231,concept
1232,herba
1233,institut
1234,satellit
1235,launch
1236,deposit
1237,inde
1238,aid
1239,brand
1240,june
1241,convers
1242,thursday
1243,walk
1244,concentr
1245,degre
1246,contribut
1247,doubt
1248,nigeria
1249,roll
1250,otherwis
1251,ms
1252,weapon
1253,arriv
1254,forget
1255,former
1256,carri
1257,unlimit
1258,wife
1259,repositori
1260,echo
1261,classifi
1262,background
1263,pacif
1264,honor
1265,compet
1266,indian
1267,yeah
1268,token
1269,fight
1270,critic
1271,listen
1272,affili
1273,recipi
1274,conflict
1275,powel
1276,tech
1277,sat
1278,percent
1279,storag
1280,unfortun
1281,discount
1282,app
1283,surpris
1284,extens
1285,isp
1286,password
1287,hot
1288,succeed
1289,sleep
1290,civil
1291,jabber
1292,basi
1293,effici
1294,assur
1295,detect
1296,hermio
1297,water
1298,sit
1299,alsa
1300,output
1301,intro
1302,panel
1303,substanti
1304,garrigu
1305,printer
1306,kept
1307,attract
1308,enemi
1309,jm
1310,worldwid
1311,proprietari
1312,menu
1313,scan
1314,pull
1315,light
1316,descript
1317,inc
1318,catch
1319,mine
1320,tabl
1321,ip
1322,nobodi
1323,wednesday
1324,advic
1325,pudg
1326,v
1327,truth
1328,saw
1329,god
1330,revers
1331,joe
1332,disabl
1333,index
1334,euro
1335,vendor
1336,seven
1337,patent
1338,manufactur
1339,gone
1340,analysi
1341,structur
1342,agreement
1343,room
1344,franc
1345,k
1346,teach
1347,specifi
1348,cool
1349,vote
1350,lack
1351,alon
1352,balanc
1353,decad
1354,morn
1355,jame
1356,charact
1357,wast
1358,obvious
1359,boston
1360,gold
1361,awar
1362,editor
1363,california
1364,whitelist
1365,polic
1366,innov
1367,zip
1368,construct
1369,treat
1370,u
1371,clue
1372,insert
1373,journal
1374,career
1375,highli
1376,trick
1377,financ
1378,tom
1379,ga
1380,temperatur
1381,theori
1382,afford
1383,touch
1384,impress
1385,middl
1386,encourag
1387,ultim
1388,son
1389,int
1390,spec
1391,gcc
1392,incred
1393,flag
1394,greater
1395,constitut
1396,peni
1397,brain
1398,cent
1399,correspond
1400,usag
1401,ebay
1402,attorney
1403,anymor
1404,dan
1405,jim
1406,mechan
1407,boy
1408,wake
1409,blood
1410,input
1411,greg
1412,mother
1413,blank
1414,trial
1415,larger
1416,annual
1417,master
1418,summari
1419,hp
1420,previou
1421,hate
1422,democrat
1423,mike
1424,suffer
1425,stream
1426,cbyi
1427,el
1428,urgent
1429,cheap
1430,perman
1431,advis
1432,pound
1433,focu
1434,skeptic
1435,flow
1436,suspect
1437,judg
1438,particularli
1439,mostli
1440,speech
1441,varieti
1442,underwrit
1443,php
1444,smtp
1445,star
1446,mistak
1447,instanc
1448,delay
1449,percentag
1450,wealth
1451,vacat
1452,obviou
1453,dynam
1454,behavior
1455,comfort
1456,eye
1457,keyboard
1458,warm
1459,dark
1460,binari
1461,super
1462,earlier
1463,republ
1464,destruct
1465,toni
1466,woman
1467,ireland
1468,reveal
1469,arm
1470,firewal
1471,mailer
1472,channel
1473,laserjet
1474,ban
1475,affect
1476,termin
1477,telecom
1478,rick
1479,rock
1480,consolid
1481,steve
1482,english
1483,essenti
1484,rss
1485,knew
1486,heart
1487,motiv
1488,tend
1489,se
1490,char
1491,consist
1492,btw
1493,recogn
1494,vipul
1495,alli
1496,principl
1497,domest
1498,prospect
1499,floppi
1500,skill
1501,style
1502,beta
1503,lawyer
1504,highlight
1505,core
1506,estim
1507,wing
1508,prompt
1509,pack
1510,eventu
1511,somewher
1512,gnome
1513,unlik
1514,dell
1515,bonus
1516,lifetim
1517,opt
1518,pipe
1519,defend
1520,nearli
1521,magazin
1522,invit
1523,staff
1524,ftoc
1525,fl
1526,planta
1527,vehicl
1528,comprehens
1529,beat
1530,role
1531,task
1532,sensit
1533,modern
1534,roman
1535,despit
1536,march
1537,biggest
1538,clearli
1539,eat
1540,restor
1541,audio
1542,python
1543,food
1544,ground
1545,modem
1546,pocket
1547,dn
1548,babi
1549,hair
1550,histor
1551,map
1552,teledynam
1553,strongli
1554,favor
1555,eval
1556,picasso
1557,impact
1558,commentari
1559,suck
1560,fresh
1561,complianc
1562,convert
1563,strength
1564,revis
1565,bind
1566,senior
1567,mlm
1568,config
1569,shown
1570,met
1571,conserv
1572,dragon
1573,interview
1574,exploit
1575,peter
1576,british
1577,minimum
1578,coverag
1579,mile
1580,dont
1581,equal
1582,beyond
1583,gave
1584,everybodi
1585,texa
1586,spot
1587,font
1588,doctor
1589,permit
1590,truli
1591,mailbox
1592,employe
1593,failur
1594,instantli
1595,protocol
1596,stabl
1597,liber
1598,visa
1599,tape
1600,consider
1601,q
1602,synchron
1603,auto
1604,reli
1605,tx
1606,optim
1607,brought
1608,signal
1609,typic
1610,exact
1611,calcul
1612,geeg
1613,variabl
1614,startup
1615,led
1616,proper
1617,worst
1618,dial
1619,crash
1620,expir
1621,al
1622,chines
1623,showcas
1624,translat
1625,distanc
1626,revok
1627,draw
1628,plant
1629,annoy
1630,finish
1631,favorit
1632,yesterday
1633,broker
1634,extern
1635,boss
1636,crimin
1637,hidden
1638,stylu
1639,prove
1640,spent
1641,neighbor
1642,imposs
1643,evil
1644,netscap
1645,z
1646,feet
1647,strang
1648,artist
1649,sir
1650,bearer
1651,rare
1652,retriev
1653,bigger
1654,repair
1655,ran
1656,sole
1657,acknowledg
1658,pop
1659,foundat
1660,serious
1661,guidelin
1662,rebuild
1663,hotel
1664,safeti
1665,autom
1666,sport
1667,properli
1668,somebodi
1669,england
1670,beauti
1671,equiti
1672,rob
1673,scientist
1674,evalu
1675,portion
1676,hack
1677,planet
1678,edward
1679,hell
1680,poverti
1681,jump
1682,prescript
1683,scheme
1684,correctli
1685,antiqu
1686,lie
1687,hire
1688,chicago
1689,sunday
1690,summer
1691,push
1692,spread
1693,bell
1694,iiu
1695,strip
1696,minor
1697,gentl
1698,explor
1699,station
1700,ii
1701,climat
1702,restrict
1703,mount
1704,fundament
1705,entertain
1706,shape
1707,epson
1708,diseas
1709,para
1710,student
1711,primari
1712,radio
1713,headlin
1714,vou
1715,lo
1716,recruit
1717,currenc
1718,becam
1719,threaten
1720,recal
1721,seed
1722,proxi
1723,resum
1724,merchant
1725,husband
1726,hang
1727,laser
1728,mainten
1729,architectur
1730,spamd
1731,herb
1732,craig
1733,damag
1734,happier
1735,protest
1736,muscl
1737,settlement
1738,van
1739,plug
1740,stick
1741,viagra
1742,prioriti
1743,sendmail
1744,disclaim
1745,vast
1746,buyer
1747,exit
1748,doubl
1749,corpu
1750,feroc
1751,remedi
1752,disappear
1753,luck
1754,laugh
1755,ssh
1756,georg
1757,green
1758,moor
1759,dozen
1760,somehow
1761,prior
1762,creativ
1763,angl
1764,ticket
1765,hall
1766,camera
1767,wors
1768,fantasi
1769,western
1770,feedback
1771,reg
1772,faith
1773,broken
1774,aspect
1775,anonym
1776,symbol
1777,hormon
1778,seminar
1779,bother
1780,batteri
1781,reject
1782,supplement
1783,pour
1784,tel
1785,realiti
1786,kathmandu
1787,usb
1788,child
1789,feed
1790,norton
1791,oil
1792,parent
1793,appeal
1794,encrypt
1795,entrepreneur
1796,convent
1797,shall
1798,perfectli
1799,arrang
1800,democraci
1801,authent
1802,doc
1803,allianc
1804,committe
1805,shot
1806,argu
1807,substanc
1808,acceler
1809,eugen
1810,statist
1811,slightli
1812,à
1813,neither
1814,legitim
1815,sponsorship
1816,mozilla
1817,phrase
1818,shock
1819,funni
1820,convinc
1821,observ
1822,electr
1823,serial
1824,park
1825,random
1826,auction
1827,frame
1828,strictli
1829,barcelona
1830,east
1831,empir
1832,refund
1833,door
1834,solari
1835,ie
1836,edificio
1837,edg
1838,meant
1839,award
1840,resolv
1841,hey
1842,merg
1843,nort
1844,queri
1845,appropri
1846,highest
1847,volum
1848,daniel
1849,kelli
1850,aphrodisia
1851,postal
1852,bear
1853,capac
1854,fear
1855,damn
1856,survey
1857,stabil
1858,tomorrow
1859,repeat
1860,lesson
1861,surviv
1862,carrier
1863,pressur
1864,hunt
1865,smaller
1866,union
1867,strike
1868,pablo
1869,trip
1870,twice
1871,herbal
1872,owen
1873,odd
1874,virus
1875,mr
1876,te
1877,fairli
1878,arrest
1879,aggress
1880,alter
1881,mason
1882,bought
1883,declin
1884,banner
1885,weekend
1886,amend
1887,farquhar
1888,ah
1889,januari
1890,compon
1891,welch
1892,easiest
1893,inbox
1894,prosaka
1895,duplic
1896,race
1897,zero
1898,violat
1899,winner
1900,nt
1901,gmt
1902,cold
1903,appl
1904,harm
1905,promiscu
1906,licenc
1907,exclud
1908,testimoni
1909,cancel
1910,complain
1911,algorithm
1912,nativ
1913,md
1914,deni
1915,honest
1916,audienc
1917,debian
1918,farm
1919,blog
1920,vari
1921,ratio
1922,viru
1923,round
1924,mirror
1925,mh
1926,hmm
1927,spray
1928,bandwidth
1929,formula
1930,pill
1931,presum
1932,reduct
1933,scam
1934,genet
1935,bunch
1936,sea
1937,analyst
1938,elsewher
1939,renew
1940,reboot
1941,compens
1942,tab
1943,martin
1944,gibbon
1945,split
1946,label
1947,possess
1948,partnership
1949,precis
1950,club
1951,vjestika
1952,brief
1953,austin
1954,â
1955,gay
1956,bankruptci
1957,approxim
1958,iraq
1959,envelop
1960,grand
1961,processor
1962,roger
1963,lift
1964,deploy
1965,mous
1966,weekli
1967,blue
1968,gordon
1969,plugin
1970,saturday
1971,dramat
1972,msgid
1973,massiv
1974,buffer
1975,invent
1976,porn
1977,reward
1978,prohibit
1979,empti
1980,flash
1981,millionair
1982,sm
1983,agreeabl
1984,ibm
1985,retir
1986,that
1987,collabor
1988,aol
1989,infrastructur
1990,ps
1991,rohit
1992,religion
1993,anytim
1994,dig
1995,fuck
1996,inconveni
1997,writer
1998,adopt
1999,apart
2000,complex
2001,cancer
2002,environment
2003,inspir
2004,nvidia
2005,engag
2006,plenti
2007,ministri
2008,harley
2009,justic
2010,shell
2011,northern
2012,length
2013,conduct
2014,satisfi
2015,thoma
2016,assembl
2017,african
2018,solicit
2019,schedul
2020,cycl
2021,encount
2022,distro
2023,henc
2024,candid
2025,rout
2026,rose
2027,mere
2028,img
2029,experienc
2030,onto
2031,bound
2032,excess
2033,began
2034,swap
2035,acquisit
2036,clock
2037,enforc
2038,farmer
2039,self
2040,duncan
2041,own
2042,minim
2043,transform
2044,televis
2045,kate
2046,elect
2047,guido
2048,grab
2049,domin
2050,russian
2051,famou
2052,newspap
2053,pointer
2054,deep
2055,straight
2056,evolv
2057,demonstr
2058,homeown
2059,london
2060,wholesal
2061,prosper
2062,conclud
2063,scale
2064,liter
2065,throw
2066,attend
2067,registr
2068,boost
2069,wave
2070,murder
2071,rank
2072,toll
2073,oppos
2074,niall
2075,unabl
2076,glad
2077,lawsuit
2078,preserv
2079,mix
2080,colleagu
2081,context
2082,buck
2083,hors
2084,receipt
2085,christian
2086,chat
2087,entiti
2088,co
2089,loop
2090,russia
2091,blame
2092,religi
2093,crime
2094,corrupt
2095,routin
2096,remark
2097,valhalla
2098,resel
2099,attain
2100,assert
2101,da
2102,proof
2103,skin
2104,habea
2105,asia
2106,newsgroup
2107,destroy
2108,scientif
2109,tast
2110,moral
2111,forest
2112,marshalles
2113,passphras
2114,accur
2115,icq
2116,brent
2117,paypal
2118,webmast
2119,inkjet
2120,tune
2121,numer
2122,abacha
2123,mathemat
2124,replica
2125,glm
2126,vircio
2127,embed
2128,regardless
2129,po
2130,frequent
2131,bless
2132,visitor
2133,joseph
2134,yield
2135,jar
2136,victim
2137,ben
2138,chart
2139,brother
2140,na
2141,song
2142,bu
2143,column
2144,heavi
2145,null
2146,hash
2147,mountain
2148,hint
2149,sheet
2150,rise
2151,throughout
2152,yellow
2153,formal
2154,limbo
2155,dog
2156,freebsd
2157,branch
2158,remind
2159,town
2160,consequ
2161,chip
2162,trace
2163,incompat
2164,pro
2165,drink
2166,amateur
2167,mess
2168,bay
2169,pure
2170,labor
2171,logic
2172,aim
2173,classic
2174,syntax
2175,gambl
2176,export
2177,adapt
2178,imho
2179,decemb
2180,exhibit
2181,spamtrap
2182,pars
2183,il
2184,negoti
2185,opposit
2186,violenc
2187,felt
2188,crap
2189,smoker
2190,privileg
2191,assign
2192,que
2193,focus
2194,prize
2195,ladi
2196,est
2197,topic
2198,joke
2199,satisfact
2200,worker
2201,exceed
2202,coast
2203,spirit
2204,circumst
2205,stamp
2206,appoint
2207,stage
2208,pa
2209,fan
2210,pursu
2211,byte
2212,lib
2213,cheaper
2214,complic
2215,batch
2216,battl
2217,incorpor
2218,vice
2219,specialist
2220,tremend
2221,sur
2222,compel
2223,chairman
2224,keyword
2225,sophist
2226,bet
2227,lover
2228,truck
2229,loos
2230,trivial
2231,struggl
2232,alan
2233,unwant
2234,admit
2235,liberti
2236,boundari
2237,airlin
2238,goto
2239,older
2240,jodi
2241,riaa
2242,alert
2243,entitl
2244,florida
2245,ui
2246,okay
2247,strengthen
2248,compress
2249,kit
2250,intel
2251,caught
2252,dublin
2253,unknown
2254,affair
2255,moder
2256,gather
2257,hole
2258,penni
2259,mastercard
2260,margin
2261,sector
2262,ved
2263,wear
2264,owe
2265,ideal
2266,australia
2267,muslim
2268,ahead
2269,transmiss
2270,surfac
2271,belief
2272,britain
2273,ownership
2274,disclosur
2275,album
2276,pioneer
2277,trend
2278,airport
2279,marri
2280,maker
2281,lay
2282,stephen
2283,pickl
2284,adjust
2285,jack
2286,msn
2287,palestinian
2288,refus
2289,weather
2290,raw
2291,outlook
2292,mplayer
2293,tin
2294,encod
2295,maximum
2296,weak
2297,overal
2298,reform
2299,assumpt
2300,dump
2301,dice
2302,scott
2303,relay
2304,majesti
2305,wa
2306,suffici
2307,timeout
2308,stress
2309,ice
2310,wealthi
2311,debug
2312,magic
2313,finger
2314,chain
2315,ne
2316,influenc
2317,sentenc
2318,hawaii
2319,propag
2320,captur
2321,portabl
2322,curv
2323,egg
2324,schuman
2325,astronom
2326,weird
2327,submiss
2328,patrick
2329,admin
2330,mandat
2331,dinosaur
2332,frustrat
2333,crack
2334,bone
2335,spring
2336,ou
2337,shout
2338,session
2339,trademark
2340,retain
2341,depress
2342,catalog
2343,endeavor
2344,silli
2345,heck
2346,holiday
2347,vision
2348,lilo
2349,whatsoev
2350,explan
2351,casino
2352,corner
2353,ar
2354,ram
2355,mysql
2356,speaker
2357,bomb
2358,movement
2359,inexpens
2360,fli
2361,gpg
2362,buri
2363,latter
2364,unusu
2365,api
2366,hospit
2367,virginia
2368,rah
2369,randomli
2370,scratch
2371,besid
2372,spambay
2373,intellectu
2374,minist
2375,settl
2376,belong
2377,hacker
2378,rapidli
2379,circl
2380,outstand
2381,tower
2382,francisco
2383,ethic
2384,jeremi
2385,formul
2386,greatest
2387,joint
2388,ir
2389,hide
2390,du
2391,igtt
2392,prob
2393,snore
2394,constant
2395,germani
2396,tivo
2397,twenti
2398,preced
2399,ez
2400,theme
2401,lean
2402,proceed
2403,fuel
2404,ton
2405,ce
2406,expos
2407,scholarship
2408,openssl
2409,recognit
2410,celebr
2411,xxx
2412,abandon
2413,iroijlaplap
2414,thirti
2415,intent
2416,plane
2417,necessarili
2418,pentium
2419,organis
2420,es
2421,tweak
2422,greet
2423,openssh
2424,framework
2425,richard
2426,dr
2427,wild
2428,recov
2429,draft
2430,harvest
2431,forum
2432,relax
2433,une
2434,japan
2435,maxim
2436,german
2437,armi
2438,fp
2439,marriag
2440,arg
2441,bsd
2442,element
2443,season
2444,conclus
2445,jurisdict
2446,commerc
2447,scope
2448,boom
2449,telecommun
2450,freez
2451,elig
2452,milter
2453,bond
2454,con
2455,ximian
2456,layer
2457,everywher
2458,murjel
2459,anthoni
2460,burner
2461,council
2462,ratak
2463,decreas
2464,flight
2465,invalid
2466,dedic
2467,bob
2468,pleasur
2469,leas
2470,shoot
2471,zone
2472,subsequ
2473,magnitud
2474,render
2475,scenario
2476,capitalist
2477,notifi
2478,trader
2479,raid
2480,contest
2481,tobacco
2482,pci
2483,asian
2484,mutual
2485,crazi
2486,advisor
2487,distributor
2488,rm
2489,fashion
2490,potent
2491,maxaman
2492,angel
2493,quarter
2494,hook
2495,till
2496,bullet
2497,difficulti
2498,born
2499,chosen
